{
    "projectId": "Methun's Assignment for bankfeeds",
    "pluginsFile": false,
    "supportFile": "cypress/support",
    "fixturesFolder": false,
    "watchForFileChanges": true,
    "defaultCommandTimeout": 40000,
    "pageLoadTimeout": 40000,
    "chromeWebSecurity": false,    
    "reporter": "cypress-multi-reporters",
    "reporterOptions": {
      "configFile": "reporterOpts.json"
    },
    "env":{
            "username":"xero.qa@oolloo.org",
            "password":"xero0xero"
        }
}